{
    "pageable": {
        "pageNumber": 1,
        "totalElements": 10,
        "totalPages": 10,
        "first":false,
        "last":false
    },
    "content":[
        "hello1",
        "hello2",
        "hello3",
        "hello4",
        "hello5"
    ]
}